{
    "add_repo": {
        "intro": "扫描你想要添加的 repo 中的二维码，可在找到这些 repo 的设备或网站上找到。",
        "no_internet": "没有互联网？没关系。学习<a href=\"../swap/\">如何离线发送和接收应用。</a>",
        "open_repo_link": {
            "description": "如果通过电子邮件、社交媒体或短信发送存储库链接，请打开它以将其中应用安装到 F-Droid 中。",
            "short_summary": "打开存储库链接",
            "steps": {
                "step_1": "在您的 Android 设备上下载并安装 F-Droid 应用。",
                "step_2": "点击该链接并在您的设备上的 web 浏览器中打开它。",
                "step_3": "打开链接后，点击“添加到 F-Droid”按钮。",
                "step_4": "点按“我已有 F-Droid”按钮。F-Droid 应用将打开。",
                "step_5": "“添加新存储库”与预填充的存储库地址一起显示。点按“确定”将其添加。",
                "step_6": "您的新存储库将被添加。要查看存储库列表，请打开“设置”。选择“存储库”。",
                "step_7": "点按存储库以查看其内容。",
                "step_8": "选择您想要应用，并将其安装在设备上。"
            },
            "title": "打开设备上的存储库链接"
        },
        "overview": {
            "summary": "若要获取更多信息，请在 F-Droid 中添加一个存储库。存储库是由策划内容组成的集合。你可以直接向人们寻求他们的存储库。开发人员经常从他们的网站链接到他们的 F-Droid 存储库。培训员经常通过电子邮件、Facebook 或 Twitter 分享存储库的链接。",
            "title": "获取更多内容。"
        },
        "scan_qr_code": {
            "description": "扫描你想要添加的 repo 中的二维码，可在找到这些 repo 的设备或网站上找到。",
            "related_tutorial": "您可能还对以下内容感兴趣：<a href=\"../swap/\">如何离线发送和接收应用程序</a>",
            "short_summary": "扫描二维码",
            "steps": {
                "step_1": "显示存储库的二维码后，使用二维码扫描应用扫描。",
                "step_2": "点按链接。如果给定该选项，请使用 F-Droid 打开链接。然后按照提示操作。如果有效，你已完成！如果没有，请继续执行下一步。",
                "step_3": "如果没有使用 F-Droid 打开链接的选项，请关闭二维码扫描应用并打开 F-Droid 应用。",
                "step_4": "在 F-Droid 中，点按‘设置’。在‘我的应用’下，选择‘存储库’。",
                "step_5": "在存储库屏幕上，点击顶角的‘+’图标。",
                "step_6": "存储库地址将自动填充。点按‘启用’。注意：存储库将保存在 F-Droid 存储库中，但在手动选择和安装之前，不会安装任何应用。"
            },
            "title": "从另一台设备扫描二维码"
        },
        "title": "如何将存储库添加到 F-Droid"
    },
    "create_repo": {
        "customize_repo": {
            "description": "您可以编辑应用和文件简介，使其对目标受众可以理解。您可以编辑语言使其特定于国家/地区。然后在会议和培训之前向与会者无缝分享存储库。",
            "steps": {
                "step_1": "点击某个项目以打开其详细信息。",
                "step_2": "点击‘编辑’。",
                "step_3": "自定义内容以适合您的目标受众。注意：您所做的更改将仅对您的存储库进行。它们不会更新原始源。在为非您的内容自定义信息时，请尊重原文。",
                "step_4": "所有更改都将自动保存。"
            },
            "title": "自定义您的存储库"
        },
        "download_and_install": {
            "steps": {
                "step_1": "下载 Repomaker web 应用并将其安装到桌面计算机。关于如何做到这一点的更多信息，请参见<a href=\"https://gitlab.com/fdroid/repomaker/blob/master/README.md#installation\">安装指南</a>。",
                "step_2": "启动 Repomaker web 应用，注册或登录以开始。",
                "step_3": "创建一个新的存储库并相应地命名它。",
                "step_4": "从库和可用存储库中选择添加应用，或上传自己的文件。点击‘从库中添加’按钮，从随时可用的内容中进行选择。",
                "step_5": "点击要添加的项目旁边的‘添加’按钮。完成后，点击‘后退’箭头返回到您的存储库。",
                "step_6": "你的应用将显示在您的存储库内容视图中。"
            },
            "title": "下载并安装 Repomaker 开始创建"
        },
        "intro": "找不到您要找的内容？在计算机上下载 Repomaker web 应用，以创建自己的自定义应用和文件集合。",
        "overview": {
            "summary": "创建自己的自定义应用存储库。使用 F-Droid 分发内容。在没有可靠的互联网连接的情况下，培训师使用存储库轻松地与培训参与者分享资源和应用的集合。开发人员使用存储库将其应用分发给特定受众。",
            "title": "添加您自己的应用和文件。"
        },
        "related_tutorial": "您可能还对以下方面感兴趣:<a href='../add-repo/'>如何将存储库添加到 F-Droid</a>",
        "share_repo": {
            "steps": {
                "step_1": "打开您希望共享的存储库，单击菜单中的‘分享’。注意: 在分享之前，您需要设置一个存储存储库的位置。步骤 2 中提供了有关如何执行此操作的说明。",
                "step_2": "系统将在分享之前提示您设置存储空间，以便发布存储库。如果看不到此页，请继续执行步骤 4。",
                "step_3": "选择最适合您需求的存储选项。一旦你有了存储空间，你就可以分享了！返回到‘分享’。",
                "step_4": "选择复制链接并通过电子邮件或短信将其直接发送给用户，或在 Facebook 或 Twitter 上分享您的存储库。当用户打开您的存储库链接时，他们需要将其添加到 Android 设备以访问存储库中的应用。有关详细信息，请参阅<a href='../add-repo/'>如何将存储库添加到 F-Droid</a>。",
                "step_5": "‘查看存储库’选项允许您查看刚刚发布或分享的内容。"
            },
            "title": "自定义您的存储库"
        },
        "title": "如何创建存储库",
        "update_repo": {
            "steps": {
                "step_1": "如果从库中添加应用，则在源添加新版本时，这些应用将自动更新。对于上传的文件，可以在存储库视图中拖放更新的版本。",
                "step_2": "或者，您可以打开单个项目以添加新版本。选择‘编辑’。",
                "step_3": "向下滚动到版本。然后，在‘版本历史记录’部分下添加新版本。",
                "step_4": "然后，在‘版本历史记录’部分下添加新版本。"
            },
            "title": "更新您的存储库"
        }
    },
    "misc": {
        "option_x_description": "选项 [number]: [description]",
        "overview": {
            "summary": "F-Droid 是一个独立的，来自社区的 Android 应用商店，是完全自由开源的软件。在 F-Droid 中，您可以浏览超过 1,200 个开源应用，从已创建的存储库中搜索和安装应用，或创建自己的存储库。在您的 Android 设备上打开 f-droid.org ，下载应用并开始！",
            "title": "你能用 F-Droid 做什么",
            "tutorial_x_title": "教程 [number]: [title]"
        },
        "step_x": "步骤 [number]",
        "step_x_description": "步骤 [number]: [description]"
    },
    "swap": {
        "all_devices_need_fdroid": "所有设备都需要在开始之前下载并安装 F-Droid。所有设备应按照以下步骤操作。",
        "intro": "没有互联网？没关系。从您附近的人下载应用。",
        "overview": {
            "summary": "没有互联网？没关系。F-Droid 附近为您提供了向同一房间中的人发送和接收内容的能力。",
            "title": "离线发送和接收应用。"
        },
        "related_tutorial": "您可能还对以下方面感兴趣：<a href=\"../create-repo/\">如何创建存储库</a>",
        "step_1": "打开 F-Droid。点按屏幕底部的菜单中的‘附近’。",
        "step_10": "要访问已安装的应用，请打开 F-Droid 设置，然后在‘我的应用’下选择‘管理已安装的应用’。",
        "step_2": "点击‘查找我附近的人’以搜索兼容的设备。",
        "step_3": "一旦找到附近的人，您和联系人都必须选择对方。",
        "step_4": "连接后，选择要与联系人共享的应用。",
        "step_5": "点按‘—>’按钮。",
        "step_6": "系统将提示一人确认连接请求。",
        "step_7": "点按要安装的应用旁边的‘安装’按钮。",
        "step_8": "再次点按‘安装’。然后，按照 Android 提示完成安装过程。",
        "step_9": "安装完成后，你的应用将在 Android 应用库中可用，也可在已安装应用下的 F-Droid 应用中使用。",
        "title": "如何离线发送和接收应用"
    }
}
